[
    {
        "fileName": "00.mp4",
        "duration": 36000
    },
    {
        "fileName": "01.mp4",
        "duration": 30000
    },
    {
        "fileName": "02.mp4",
        "duration": 60000
    },
    {
        "fileName": "03.mp4",
        "duration": 60000
    }
]
